[22:47:37] PROCESS STARTED, STAGE CLEANUP
[22:47:39] ### NEXT STAGE >>> CREATE_DICTIONARY in 414427:47:39, mem peak = 0 mb
HIT ENDED [22:47:39]
#############################
HIT STARTED [22:47:40]
[22:47:46] ### NEXT STAGE >>> RESORT_DICTIONARY in 0:00:06, mem peak = 12.367797851562 mb
HIT ENDED [22:47:46]
#############################
HIT STARTED [22:47:47]
[22:47:48] ### NEXT STAGE >>> CREATE_SEARCH_INDEX in 0:00:08, mem peak = 12.608062744141 mb
HIT ENDED [22:47:48]
#############################
HIT STARTED [22:47:48]
[22:48:00] ### NEXT STAGE >>> CREATE_SITE2LOCATION_INDEX in 0:00:20, mem peak = 12.608062744141 mb
HIT ENDED [22:48:00]
#############################
HIT STARTED [22:48:01]
[22:48:02] ### NEXT STAGE >>> RESTORE_DB_INDEXES in 0:00:22, mem peak = 12.611335754395 mb
HIT ENDED [22:48:02]
#############################
HIT STARTED [22:48:06]
HIT ENDED [22:48:06]
#############################
HIT STARTED [22:48:07]
HIT ENDED [22:48:10]
#############################
HIT STARTED [22:48:12]
[22:48:12] ### NEXT STAGE >>>  in 0:00:32, mem peak = 12.611335754395 mb
HIT ENDED [22:48:12]
